<?xml version="1.0" encoding="UTF-8" standalone="no"?>
<!-- Created with Inkscape (http://www.inkscape.org/) -->

<svg
   xmlns:dc="http://purl.org/dc/elements/1.1/"
   xmlns:cc="http://creativecommons.org/ns#"
   xmlns:rdf="http://www.w3.org/1999/02/22-rdf-syntax-ns#"
   xmlns:svg="http://www.w3.org/2000/svg"
   xmlns="http://www.w3.org/2000/svg"
   xmlns:sodipodi="http://sodipodi.sourceforge.net/DTD/sodipodi-0.dtd"
   xmlns:inkscape="http://www.inkscape.org/namespaces/inkscape"
   width="223.55325mm"
   height="125.07497mm"
   viewBox="0 0 223.55325 125.07497"
   version="1.1"
   id="svg8"
   inkscape:version="0.92.2 (5c3e80d, 2017-08-06)"
   sodipodi:docname="oscillations.svg"
   inkscape:export-filename="/home/jm/recherche/vulgarisation/basicsynth/illustrations/oscillations.png"
   inkscape:export-xdpi="195"
   inkscape:export-ydpi="195">
  <sodipodi:namedview
     id="base"
     pagecolor="#ffffff"
     bordercolor="#666666"
     borderopacity="1.0"
     inkscape:pageopacity="0.0"
     inkscape:pageshadow="2"
     inkscape:zoom="1.4"
     inkscape:cx="341.2039"
     inkscape:cy="286.29448"
     inkscape:document-units="mm"
     inkscape:current-layer="layer1"
     showgrid="false"
     inkscape:window-width="1920"
     inkscape:window-height="1051"
     inkscape:window-x="0"
     inkscape:window-y="0"
     inkscape:window-maximized="1"
     fit-margin-top="0"
     fit-margin-left="0"
     fit-margin-right="0"
     fit-margin-bottom="0" />
  <defs
     id="defs2">
    <marker
       inkscape:stockid="Arrow2Mend"
       orient="auto"
       refY="0"
       refX="0"
       id="Arrow2Mend"
       style="overflow:visible"
       inkscape:isstock="true">
      <path
         id="path950"
         style="fill:#000000;fill-opacity:1;fill-rule:evenodd;stroke:#000000;stroke-width:0.625;stroke-linejoin:round;stroke-opacity:0.64285715"
         d="M 8.7185878,4.0337352 -2.2072895,0.01601326 8.7185884,-4.0017078 c -1.7454984,2.3720609 -1.7354408,5.6174519 -6e-7,8.035443 z"
         transform="scale(-0.6)"
         inkscape:connector-curvature="0" />
    </marker>
    <marker
       inkscape:stockid="Arrow2Lend"
       orient="auto"
       refY="0"
       refX="0"
       id="Arrow2Lend"
       style="overflow:visible"
       inkscape:isstock="true">
      <path
         id="path944"
         style="fill:#ffffff;fill-opacity:0.07246375;fill-rule:evenodd;stroke:#000000;stroke-width:0.625;stroke-linejoin:round;stroke-opacity:0.64285715"
         d="M 8.7185878,4.0337352 -2.2072895,0.01601326 8.7185884,-4.0017078 c -1.7454984,2.3720609 -1.7354408,5.6174519 -6e-7,8.035443 z"
         transform="matrix(-1.1,0,0,-1.1,-1.1,0)"
         inkscape:connector-curvature="0" />
    </marker>
    <marker
       inkscape:stockid="Arrow1Lstart"
       orient="auto"
       refY="0"
       refX="0"
       id="Arrow1Lstart"
       style="overflow:visible"
       inkscape:isstock="true">
      <path
         id="path923"
         d="M 0,0 5,-5 -12.5,0 5,5 Z"
         style="fill:#ffffff;fill-opacity:0.07246375;fill-rule:evenodd;stroke:#000000;stroke-width:1.00000003pt;stroke-opacity:0.64285715"
         transform="matrix(0.8,0,0,0.8,10,0)"
         inkscape:connector-curvature="0" />
    </marker>
    <marker
       inkscape:stockid="Arrow2Mend"
       orient="auto"
       refY="0"
       refX="0"
       id="Arrow2Mend-6"
       style="overflow:visible"
       inkscape:isstock="true">
      <path
         inkscape:connector-curvature="0"
         id="path950-7"
         style="fill:#000000;fill-opacity:1;fill-rule:evenodd;stroke:#000000;stroke-width:0.625;stroke-linejoin:round;stroke-opacity:0.64285715"
         d="M 8.7185878,4.0337352 -2.2072895,0.01601326 8.7185884,-4.0017078 c -1.7454984,2.3720609 -1.7354408,5.6174519 -6e-7,8.035443 z"
         transform="scale(-0.6)" />
    </marker>
  </defs>
  <metadata
     id="metadata5">
    <rdf:RDF>
      <cc:Work
         rdf:about="">
        <dc:format>image/svg+xml</dc:format>
        <dc:type
           rdf:resource="http://purl.org/dc/dcmitype/StillImage" />
        <dc:title />
      </cc:Work>
    </rdf:RDF>
  </metadata>
  <g
     inkscape:label="Calque 1"
     inkscape:groupmode="layer"
     id="layer1"
     transform="translate(-1.309213,-28.848029)">
    <path
       style="fill:none;stroke:#000000;stroke-width:0.26458332px;stroke-linecap:butt;stroke-linejoin:miter;stroke-opacity:1"
       d="M 14.910395,153.26154 H 41.191662"
       id="path846-3-6"
       inkscape:connector-curvature="0"
       sodipodi:nodetypes="cc" />
    <path
       style="fill:none;stroke:#000000;stroke-width:0.26499999;stroke-linecap:butt;stroke-linejoin:miter;stroke-miterlimit:4;stroke-dasharray:0.52999997, 0.52999997;stroke-dashoffset:2.64999986;stroke-opacity:1"
       d="M 65.247718,47.357029 H 114.54114"
       id="path846-6"
       inkscape:connector-curvature="0"
       sodipodi:nodetypes="cc" />
    <path
       style="fill:none;stroke:#000000;stroke-width:0.26458332px;stroke-linecap:butt;stroke-linejoin:miter;stroke-opacity:1"
       d="M 65.247718,54.624842 V 46.217225"
       id="path846-3-7"
       inkscape:connector-curvature="0"
       sodipodi:nodetypes="cc" />
    <path
       style="fill:none;stroke:#000000;stroke-width:0.26499999;stroke-linecap:butt;stroke-linejoin:miter;stroke-miterlimit:4;stroke-dasharray:0.52999997, 0.52999997;stroke-dashoffset:2.64999986;stroke-opacity:1"
       d="m 33.342695,54.429606 0,98.737434"
       id="path846"
       inkscape:connector-curvature="0"
       sodipodi:nodetypes="cc" />
    <path
       style="fill:none;stroke:#000000;stroke-width:0.26458332px;stroke-linecap:butt;stroke-linejoin:miter;stroke-opacity:1"
       d="m 15.814048,54.515257 26.281267,0"
       id="path846-3"
       inkscape:connector-curvature="0"
       sodipodi:nodetypes="cc" />
    <path
       id="path900"
       title="sin(x)"
       d="M 3.6042047,153.48434 V 45.194172"
       style="opacity:1;fill:#000000;fill-opacity:1;stroke:#000000;stroke-width:0.86500001;stroke-linecap:round;stroke-linejoin:round;stroke-miterlimit:4;stroke-dasharray:none;stroke-dashoffset:0;stroke-opacity:0.64285715;marker-end:url(#Arrow2Mend)"
       inkscape:connector-curvature="0"
       sodipodi:nodetypes="cc" />
    <path
       id="path900-3"
       title="sin(x)"
       d="m 3.6042047,103.96947 v 0 C 5.7257487,90.588343 7.8472917,77.304523 9.9688357,68.081441 12.09038,58.858357 14.211924,53.845815 16.333467,54.51814 c 2.121544,0.672326 4.243088,7.049194 6.364632,17.198698 2.121542,10.149503 4.243086,23.948946 6.36463,37.261962 2.121544,13.31302 4.243088,25.95088 6.364631,34.14583 2.121546,8.19496 4.243089,11.80964 6.364632,9.78872 2.121545,-2.02091 4.243088,-9.67797 6.364634,-20.65761 2.121543,-10.97964 4.243086,-25.14524 6.364629,-38.253545 2.121545,-13.108304 4.243088,-24.970509 6.364631,-32.053246 2.121546,-7.082736 4.243089,-9.262465 6.364632,-5.913703 2.121545,3.348761 4.243088,12.207446 6.364631,23.904553 2.121546,11.697106 4.243089,26.083521 6.364631,38.852591 2.121546,12.76908 4.243089,23.73392 6.364632,29.63176 2.121543,5.89784 4.243088,6.62025 6.364631,1.978 2.121546,-4.64225 4.243089,-14.61165 6.364632,-26.9062 2.121545,-12.29455 4.243085,-26.75414 6.364635,-39.052965 2.12154,-12.298827 4.24308,-22.253779 6.36463,-26.906201 2.12154,-4.652421 4.24308,-3.910099 6.36463,1.978001 2.12154,5.888098 4.24309,16.865922 6.36463,29.631753 2.12154,12.765832 4.24309,27.150222 6.36463,38.852592 2.12154,11.70238 4.24309,20.54529 6.36463,23.90456 2.12155,3.35926 4.24309,1.15982 6.36463,-5.91371 2.12155,-7.07353 4.24309,-18.94712 6.36463,-32.05324 2.12155,-13.10612 4.24309,-27.267715 6.36464,-38.253549 2.12154,-10.985836 4.24308,-18.625978 6.36463,-20.657613 2.12154,-2.031636 4.24308,1.602348 6.36463,9.788725 2.12154,8.186376 4.24309,20.833904 6.36463,34.145827 2.12154,13.31192 4.24309,27.1054 6.36463,37.26197 2.12154,10.15656 4.24309,16.51553 6.36463,17.19869 2.12155,0.68316 4.24309,-4.34808 6.36463,-13.5633 2.12155,-9.21522 4.24309,-22.5069 6.36463,-35.88802 v 0"
       style="opacity:1;fill:none;fill-opacity:0.07246375;stroke:#dc0000;stroke-width:0.86500001;stroke-linecap:round;stroke-linejoin:round;stroke-miterlimit:4;stroke-dasharray:none;stroke-dashoffset:0;stroke-opacity:1"
       inkscape:connector-curvature="0"
       sodipodi:nodetypes="ccssssscssssssssssccssccssccsscccc" />
    <path
       id="path900-5"
       title="sin(x)"
       d="M 3.6042047,103.96947 H 208.12405"
       style="opacity:1;fill:#000000;fill-opacity:1;stroke:#000000;stroke-width:0.86500001;stroke-linecap:round;stroke-linejoin:round;stroke-miterlimit:4;stroke-dasharray:none;stroke-dashoffset:0;stroke-opacity:0.64285715;marker-end:url(#Arrow2Mend-6)"
       inkscape:connector-curvature="0"
       sodipodi:nodetypes="cc" />
    <g
       aria-label="temps"
       style="font-style:normal;font-weight:normal;font-size:10.58333302px;line-height:1.25;font-family:sans-serif;letter-spacing:0px;word-spacing:0px;fill:#000000;fill-opacity:1;stroke:none;stroke-width:0.26458332"
       id="text1840"
       transform="matrix(0.82342121,0,0,0.82342121,39.70594,17.248247)">
      <path
         d="M 194.10464,88.047689 V 89.691 h 1.95854 v 0.738972 h -1.95854 v 3.141927 q 0,0.707968 0.19121,0.909506 0.19637,0.201538 0.79065,0.201538 h 0.97668 v 0.795817 h -0.97668 q -1.10071,0 -1.51929,-0.408244 -0.41858,-0.413411 -0.41858,-1.498617 V 90.429972 H 192.451 V 89.691 h 0.69763 v -1.643311 z"
         style="stroke-width:0.26458332"
         id="path1877"
         inkscape:connector-curvature="0" />
      <path
         d="m 202.26952,92.347168 v 0.465088 h -4.37183 q 0.062,0.981852 0.58912,1.498616 0.53226,0.511597 1.47794,0.511597 0.54777,0 1.05937,-0.134359 0.51676,-0.134358 1.02319,-0.403076 v 0.89917 q -0.51159,0.217041 -1.04903,0.330729 -0.53743,0.113688 -1.09037,0.113688 -1.38493,0 -2.19625,-0.806152 -0.80615,-0.806152 -0.80615,-2.180745 0,-1.421102 0.76481,-2.253093 0.76998,-0.837158 2.07222,-0.837158 1.16789,0 1.84485,0.754476 0.68213,0.749308 0.68213,2.041219 z m -0.95085,-0.279053 q -0.0103,-0.780314 -0.43925,-1.245402 -0.42374,-0.465088 -1.12654,-0.465088 -0.79582,0 -1.27641,0.449585 -0.47542,0.449585 -0.54777,1.266073 z"
         style="stroke-width:0.26458332"
         id="path1879"
         inkscape:connector-curvature="0" />
      <path
         d="m 208.33633,90.802043 q 0.35657,-0.640788 0.85267,-0.945679 0.49609,-0.304891 1.16788,-0.304891 0.90434,0 1.39527,0.63562 0.49092,0.630453 0.49092,1.79834 v 3.493327 h -0.95601 v -3.462321 q 0,-0.831991 -0.29456,-1.235067 -0.29455,-0.403076 -0.89917,-0.403076 -0.73897,0 -1.16788,0.490926 -0.42892,0.490926 -0.42892,1.33842 v 3.271118 h -0.95601 v -3.462321 q 0,-0.837158 -0.29456,-1.235067 -0.29455,-0.403076 -0.9095,-0.403076 -0.72864,0 -1.15756,0.496094 -0.42891,0.490926 -0.42891,1.333252 v 3.271118 h -0.95601 V 89.691 h 0.95601 v 0.899169 q 0.32556,-0.532267 0.78031,-0.785481 0.45476,-0.253215 1.08004,-0.253215 0.63045,0 1.0697,0.320394 0.44442,0.320394 0.65629,0.930176 z"
         style="stroke-width:0.26458332"
         id="path1881"
         inkscape:connector-curvature="0" />
      <path
         d="m 215.06461,94.610596 v 3.06958 h -0.95602 V 89.691 h 0.95602 v 0.878499 q 0.29972,-0.516764 0.75447,-0.764811 0.45992,-0.253215 1.09554,-0.253215 1.0542,0 1.71049,0.837158 0.66146,0.837159 0.66146,2.201416 0,1.364258 -0.66146,2.201416 -0.65629,0.837158 -1.71049,0.837158 -0.63562,0 -1.09554,-0.248046 -0.45475,-0.253215 -0.75447,-0.769979 z m 3.23494,-2.020549 q 0,-1.049031 -0.43408,-1.64331 -0.42892,-0.599447 -1.18339,-0.599447 -0.75448,0 -1.18856,0.599447 -0.42891,0.594279 -0.42891,1.64331 0,1.049032 0.42891,1.648478 0.43408,0.594279 1.18856,0.594279 0.75447,0 1.18339,-0.594279 0.43408,-0.599446 0.43408,-1.648478 z"
         style="stroke-width:0.26458332"
         id="path1883"
         inkscape:connector-curvature="0" />
      <path
         d="m 224.5524,89.861532 v 0.89917 q -0.40308,-0.206706 -0.83716,-0.310059 -0.43408,-0.103353 -0.89917,-0.103353 -0.70797,0 -1.06454,0.217041 -0.3514,0.217041 -0.3514,0.651123 0,0.330729 0.25322,0.521932 0.25321,0.186035 1.01803,0.356568 l 0.32556,0.07235 q 1.01285,0.217041 1.4366,0.614949 0.42892,0.392741 0.42892,1.100708 0,0.806152 -0.64079,1.276408 -0.63562,0.470255 -1.75183,0.470255 -0.46509,0 -0.97152,-0.09302 -0.50126,-0.08785 -1.05937,-0.268718 v -0.981852 q 0.5271,0.273885 1.0387,0.413412 0.5116,0.134358 1.01286,0.134358 0.67179,0 1.03353,-0.227376 0.36173,-0.232544 0.36173,-0.651123 0,-0.387573 -0.26355,-0.594279 -0.25838,-0.206706 -1.14205,-0.397908 l -0.33073,-0.07752 q -0.88366,-0.186035 -1.2764,-0.568441 -0.39275,-0.387573 -0.39275,-1.059367 0,-0.816487 0.57878,-1.260905 0.57878,-0.444417 1.64331,-0.444417 0.5271,0 0.99219,0.07752 0.46509,0.07751 0.85783,0.232544 z"
         style="stroke-width:0.26458332"
         id="path1885"
         inkscape:connector-curvature="0" />
    </g>
    <g
       aria-label="pression"
       style="font-style:normal;font-weight:normal;font-size:10.58333302px;line-height:1.25;font-family:sans-serif;letter-spacing:0px;word-spacing:0px;fill:#000000;fill-opacity:1;stroke:none;stroke-width:0.26458332"
       id="text1840-3"
       transform="matrix(0.77857864,0,0,0.77857864,2.5577449,10.734296)">
      <path
         d="m 2.265227,36.020718 v 3.06958 H 1.309213 v -7.989177 h 0.956014 v 0.8785 q 0.2997233,-0.516765 0.7544759,-0.764811 0.4599202,-0.253215 1.0955403,-0.253215 1.0541992,0 1.7104899,0.837158 0.6614583,0.837158 0.6614583,2.201416 0,1.364258 -0.6614583,2.201416 -0.6562907,0.837158 -1.7104899,0.837158 -0.6356201,0 -1.0955403,-0.248047 Q 2.5649503,36.537482 2.265227,36.020718 Z m 3.2349445,-2.020549 q 0,-1.049031 -0.434082,-1.64331 -0.4289143,-0.599447 -1.1833902,-0.599447 -0.7544759,0 -1.1885579,0.599447 -0.4289144,0.594279 -0.4289144,1.64331 0,1.049032 0.4289144,1.648478 0.434082,0.594279 1.1885579,0.594279 0.7544759,0 1.1833902,-0.594279 0.434082,-0.599446 0.434082,-1.648478 z"
         style="stroke-width:0.26458332"
         id="path1860"
         inkscape:connector-curvature="0" />
      <path
         d="m 11.417123,31.989956 q -0.160197,-0.09302 -0.3514,-0.134359 -0.186035,-0.04651 -0.413411,-0.04651 -0.8061526,0 -1.2402346,0.527099 Q 8.983163,32.85812 8.983163,33.839972 v 3.04891 H 8.0271491 V 31.101121 H 8.983163 v 0.89917 q 0.2997233,-0.527099 0.7803141,-0.780314 0.4805909,-0.258382 1.1678869,-0.258382 0.09819,0 0.217041,0.0155 0.118856,0.01033 0.26355,0.03617 z"
         style="stroke-width:0.26458332"
         id="path1862"
         inkscape:connector-curvature="0" />
      <path
         d="m 17.148039,33.75729 v 0.465088 h -4.371826 q 0.06201,0.981852 0.589112,1.498616 0.532267,0.511597 1.477946,0.511597 0.54777,0 1.059366,-0.134359 0.516765,-0.134358 1.023194,-0.403076 v 0.89917 q -0.511597,0.217041 -1.049032,0.330729 -0.537435,0.113688 -1.090373,0.113688 -1.384928,0 -2.196248,-0.806152 -0.806152,-0.806152 -0.806152,-2.180745 0,-1.421102 0.764811,-2.253093 0.769979,-0.837158 2.072225,-0.837158 1.167887,0 1.844848,0.754476 0.682129,0.749308 0.682129,2.041219 z m -0.950846,-0.279053 q -0.01033,-0.780314 -0.43925,-1.245402 -0.423746,-0.465088 -1.126546,-0.465088 -0.795817,0 -1.276408,0.449585 -0.475423,0.449585 -0.54777,1.266073 z"
         style="stroke-width:0.26458332"
         id="path1864"
         inkscape:connector-curvature="0" />
      <path
         d="m 22.398365,31.271654 v 0.89917 q -0.403076,-0.206706 -0.837158,-0.310059 -0.434082,-0.103353 -0.89917,-0.103353 -0.707967,0 -1.064535,0.217041 -0.351399,0.217041 -0.351399,0.651123 0,0.330729 0.253214,0.521932 0.253215,0.186035 1.018026,0.356567 l 0.325561,0.07235 q 1.012858,0.217041 1.436605,0.61495 0.428915,0.392741 0.428915,1.100708 0,0.806152 -0.640788,1.276408 -0.63562,0.470255 -1.751831,0.470255 -0.465088,0 -0.971517,-0.09302 -0.501262,-0.08785 -1.059367,-0.268718 v -0.981852 q 0.5271,0.273885 1.038696,0.413412 0.511597,0.134358 1.012858,0.134358 0.671794,0 1.033529,-0.227376 0.361735,-0.232544 0.361735,-0.651123 0,-0.387573 -0.26355,-0.594279 -0.258382,-0.206706 -1.142049,-0.397908 l -0.330729,-0.07751 q -0.883667,-0.186035 -1.276408,-0.568441 -0.392741,-0.387573 -0.392741,-1.059367 0,-0.816487 0.578776,-1.260905 0.578776,-0.444417 1.643311,-0.444417 0.527099,0 0.992187,0.07752 0.465088,0.07751 0.857829,0.232544 z"
         style="stroke-width:0.26458332"
         id="path1866"
         inkscape:connector-curvature="0" />
      <path
         d="m 27.917408,31.271654 v 0.89917 q -0.403076,-0.206706 -0.837158,-0.310059 -0.434082,-0.103353 -0.89917,-0.103353 -0.707967,0 -1.064535,0.217041 -0.351399,0.217041 -0.351399,0.651123 0,0.330729 0.253214,0.521932 0.253215,0.186035 1.018026,0.356567 l 0.325561,0.07235 q 1.012858,0.217041 1.436605,0.61495 0.428914,0.392741 0.428914,1.100708 0,0.806152 -0.640787,1.276408 -0.63562,0.470255 -1.751831,0.470255 -0.465088,0 -0.971517,-0.09302 -0.501262,-0.08785 -1.059367,-0.268718 v -0.981852 q 0.5271,0.273885 1.038696,0.413412 0.511597,0.134358 1.012858,0.134358 0.671794,0 1.033529,-0.227376 0.361735,-0.232544 0.361735,-0.651123 0,-0.387573 -0.26355,-0.594279 -0.258382,-0.206706 -1.142049,-0.397908 l -0.330729,-0.07751 q -0.883667,-0.186035 -1.276408,-0.568441 -0.392741,-0.387573 -0.392741,-1.059367 0,-0.816487 0.578776,-1.260905 0.578776,-0.444417 1.643311,-0.444417 0.527099,0 0.992187,0.07752 0.465088,0.07751 0.857829,0.232544 z"
         style="stroke-width:0.26458332"
         id="path1868"
         inkscape:connector-curvature="0" />
      <path
         d="M 29.746754,31.101121 H 30.6976 v 5.787761 h -0.950846 z m 0,-2.253092 H 30.6976 v 1.204061 h -0.950846 z"
         style="stroke-width:0.26458332"
         id="path1870"
         inkscape:connector-curvature="0" />
      <path
         d="m 34.924732,31.767747 q -0.764812,0 -1.209229,0.599447 -0.444417,0.594279 -0.444417,1.632975 0,1.038696 0.439249,1.638143 0.444418,0.594279 1.214397,0.594279 0.759643,0 1.20406,-0.599447 0.444418,-0.599446 0.444418,-1.632975 0,-1.028361 -0.444418,-1.627807 -0.444417,-0.604615 -1.20406,-0.604615 z m 0,-0.806152 q 1.240234,0 1.948201,0.806152 0.707967,0.806153 0.707967,2.232422 0,1.421102 -0.707967,2.232422 -0.707967,0.806152 -1.948201,0.806152 -1.245402,0 -1.95337,-0.806152 -0.702799,-0.81132 -0.702799,-2.232422 0,-1.426269 0.702799,-2.232422 0.707968,-0.806152 1.95337,-0.806152 z"
         style="stroke-width:0.26458332"
         id="path1872"
         inkscape:connector-curvature="0" />
      <path
         d="m 43.962939,33.395555 v 3.493327 h -0.950847 v -3.462321 q 0,-0.821655 -0.320393,-1.229899 -0.320394,-0.408244 -0.961182,-0.408244 -0.769979,0 -1.214396,0.490926 -0.444417,0.490926 -0.444417,1.33842 v 3.271118 H 39.11569 v -5.787761 h 0.956014 v 0.89917 q 0.341064,-0.521932 0.800984,-0.780314 0.465088,-0.258382 1.069702,-0.258382 0.997355,0 1.508952,0.620117 0.511597,0.61495 0.511597,1.813843 z"
         style="stroke-width:0.26458332"
         id="path1874"
         inkscape:connector-curvature="0" />
    </g>
    <path
       style="fill:none;stroke:#000000;stroke-width:0.26458332px;stroke-linecap:butt;stroke-linejoin:miter;stroke-opacity:1"
       d="M 114.56477,54.624841 V 46.217224"
       id="path846-3-7-5"
       inkscape:connector-curvature="0"
       sodipodi:nodetypes="cc" />
    <g
       aria-label="longueur d'onde"
       style="font-style:normal;font-weight:normal;font-size:5.11545563px;line-height:1.25;font-family:sans-serif;letter-spacing:0px;word-spacing:0px;fill:#000000;fill-opacity:1;stroke:none;stroke-width:0.12788638"
       id="text898">
      <path
         d="m 70.153291,38.914879 h 0.459591 v 3.886547 h -0.459591 z"
         style="stroke-width:0.12788638"
         id="path933" />
      <path
         d="m 72.656067,40.326125 q -0.369671,0 -0.58448,0.289742 -0.21481,0.287245 -0.21481,0.789299 0,0.502054 0.212312,0.791797 0.214809,0.287245 0.586978,0.287245 0.367174,0 0.581983,-0.289743 0.214809,-0.289742 0.214809,-0.789299 0,-0.497058 -0.214809,-0.786801 -0.214809,-0.29224 -0.581983,-0.29224 z m 0,-0.389654 q 0.599468,0 0.941664,0.389654 0.342196,0.389654 0.342196,1.079041 0,0.68689 -0.342196,1.079042 -0.342196,0.389654 -0.941664,0.389654 -0.601965,0 -0.944161,-0.389654 -0.339698,-0.392152 -0.339698,-1.079042 0,-0.689387 0.339698,-1.079041 0.342196,-0.389654 0.944161,-0.389654 z"
         style="stroke-width:0.12788638"
         id="path935" />
      <path
         d="m 77.024686,41.112926 v 1.6885 h -0.459592 v -1.673513 q 0,-0.397148 -0.154862,-0.594472 -0.154862,-0.197325 -0.464587,-0.197325 -0.37217,0 -0.586979,0.237289 -0.214809,0.237289 -0.214809,0.646926 v 1.581095 h -0.462089 v -2.797515 h 0.462089 v 0.434614 q 0.164854,-0.252276 0.387156,-0.377165 0.2248,-0.124889 0.517041,-0.124889 0.482072,0 0.729352,0.299734 0.24728,0.297236 0.24728,0.876721 z"
         style="stroke-width:0.12788638"
         id="path937" />
      <path
         d="m 79.787232,41.370197 q 0,-0.499556 -0.207316,-0.774312 -0.204818,-0.274756 -0.576987,-0.274756 -0.369672,0 -0.576987,0.274756 -0.204818,0.274756 -0.204818,0.774312 0,0.497059 0.204818,0.771815 0.207315,0.274756 0.576987,0.274756 0.372169,0 0.576987,-0.274756 0.207316,-0.274756 0.207316,-0.771815 z m 0.459592,1.084037 q 0,0.714366 -0.317218,1.061557 -0.317218,0.34969 -0.971637,0.34969 -0.242285,0 -0.457094,-0.03747 -0.214809,-0.03497 -0.417129,-0.109902 v -0.447103 q 0.20232,0.109902 0.399645,0.162356 0.197324,0.05245 0.402142,0.05245 0.452099,0 0.676899,-0.237289 0.2248,-0.234792 0.2248,-0.711868 v -0.227298 q -0.142373,0.24728 -0.364676,0.369672 -0.222302,0.122391 -0.532027,0.122391 -0.514543,0 -0.829263,-0.392152 -0.314721,-0.392151 -0.314721,-1.039077 0,-0.649423 0.314721,-1.041574 0.31472,-0.392152 0.829263,-0.392152 0.309725,0 0.532027,0.122391 0.222303,0.122392 0.364676,0.369672 v -0.424623 h 0.459592 z"
         style="stroke-width:0.12788638"
         id="path939" />
      <path
         d="m 81.146025,41.697407 v -1.693496 h 0.459592 v 1.676011 q 0,0.397147 0.154863,0.59697 0.154862,0.197325 0.464587,0.197325 0.372169,0 0.586978,-0.23729 0.217307,-0.237289 0.217307,-0.646925 v -1.586091 h 0.459592 v 2.797515 h -0.459592 v -0.429618 q -0.167351,0.254773 -0.389654,0.379662 -0.219804,0.122392 -0.512045,0.122392 -0.482071,0 -0.73185,-0.299734 -0.249778,-0.299734 -0.249778,-0.876721 z m 1.156473,-1.760936 z"
         style="stroke-width:0.12788638"
         id="path941" />
      <path
         d="m 86.833473,41.287771 v 0.2248 H 84.72035 q 0.02997,0.474578 0.284747,0.724356 0.257271,0.247281 0.714365,0.247281 0.264765,0 0.512045,-0.06494 0.249778,-0.06494 0.494561,-0.194826 v 0.434613 q -0.24728,0.104907 -0.50705,0.159858 -0.259769,0.05495 -0.527031,0.05495 -0.669406,0 -1.061557,-0.389654 -0.389654,-0.389654 -0.389654,-1.054064 0,-0.68689 0.369671,-1.089032 0.37217,-0.404641 1.001611,-0.404641 0.564498,0 0.891708,0.364676 0.329707,0.362178 0.329707,0.986624 z M 86.373881,41.15289 q -0.005,-0.377165 -0.212311,-0.601965 -0.204819,-0.2248 -0.544517,-0.2248 -0.384658,0 -0.616952,0.217307 -0.229796,0.217307 -0.264764,0.611956 z"
         style="stroke-width:0.12788638"
         id="path943" />
      <path
         d="m 87.540344,41.697407 v -1.693496 h 0.459592 v 1.676011 q 0,0.397147 0.154862,0.59697 0.154863,0.197325 0.464587,0.197325 0.37217,0 0.586979,-0.23729 0.217307,-0.237289 0.217307,-0.646925 v -1.586091 h 0.459592 v 2.797515 h -0.459592 v -0.429618 q -0.167351,0.254773 -0.389654,0.379662 -0.219805,0.122392 -0.512045,0.122392 -0.482072,0 -0.73185,-0.299734 -0.249778,-0.299734 -0.249778,-0.876721 z m 1.156473,-1.760936 z"
         style="stroke-width:0.12788638"
         id="path945" />
      <path
         d="m 92.455978,40.433529 q -0.07743,-0.04496 -0.169849,-0.06494 -0.08992,-0.02248 -0.199823,-0.02248 -0.389654,0 -0.599467,0.254774 -0.207316,0.252276 -0.207316,0.726854 v 1.473691 h -0.46209 v -2.797515 h 0.46209 v 0.434614 q 0.144871,-0.254774 0.377165,-0.377165 0.232294,-0.124889 0.564498,-0.124889 0.04746,0 0.104907,0.0075 0.05745,0.005 0.127387,0.01749 z"
         style="stroke-width:0.12788638"
         id="path947" />
      <path
         d="m 96.412464,40.428534 v -1.513655 h 0.459591 v 3.886547 h -0.459591 v -0.419627 q -0.144872,0.249778 -0.367174,0.372169 -0.219805,0.119894 -0.52953,0.119894 -0.507049,0 -0.826765,-0.404641 -0.317219,-0.40464 -0.317219,-1.064055 0,-0.659414 0.317219,-1.064054 0.319716,-0.404641 0.826765,-0.404641 0.309725,0 0.52953,0.122391 0.222302,0.119894 0.367174,0.369672 z m -1.566109,0.976632 q 0,0.50705 0.207316,0.796792 0.209813,0.287245 0.574489,0.287245 0.364676,0 0.57449,-0.287245 0.209814,-0.289742 0.209814,-0.796792 0,-0.507049 -0.209814,-0.794294 -0.209814,-0.289743 -0.57449,-0.289743 -0.364676,0 -0.574489,0.289743 -0.207316,0.287245 -0.207316,0.794294 z"
         style="stroke-width:0.12788638"
         id="path949" />
      <path
         d="m 98.253327,39.072239 v 1.386268 h -0.424623 v -1.386268 z"
         style="stroke-width:0.12788638"
         id="path951" />
      <path
         d="m 100.3115,40.326125 q -0.369673,0 -0.584482,0.289742 -0.214809,0.287245 -0.214809,0.789299 0,0.502054 0.212311,0.791797 0.214809,0.287245 0.58698,0.287245 0.36717,0 0.58198,-0.289743 0.21481,-0.289742 0.21481,-0.789299 0,-0.497058 -0.21481,-0.786801 -0.21481,-0.29224 -0.58198,-0.29224 z m 0,-0.389654 q 0.59947,0 0.94166,0.389654 0.3422,0.389654 0.3422,1.079041 0,0.68689 -0.3422,1.079042 -0.34219,0.389654 -0.94166,0.389654 -0.601967,0 -0.944163,-0.389654 -0.339698,-0.392152 -0.339698,-1.079042 0,-0.689387 0.339698,-1.079041 0.342196,-0.389654 0.944163,-0.389654 z"
         style="stroke-width:0.12788638"
         id="path953" />
      <path
         d="m 104.68012,41.112926 v 1.6885 h -0.45959 v -1.673513 q 0,-0.397148 -0.15487,-0.594472 -0.15486,-0.197325 -0.46458,-0.197325 -0.37217,0 -0.58698,0.237289 -0.21481,0.237289 -0.21481,0.646926 v 1.581095 h -0.46209 v -2.797515 h 0.46209 v 0.434614 q 0.16485,-0.252276 0.38715,-0.377165 0.22481,-0.124889 0.51705,-0.124889 0.48207,0 0.72935,0.299734 0.24728,0.297236 0.24728,0.876721 z"
         style="stroke-width:0.12788638"
         id="path955" />
      <path
         d="m 107.44266,40.428534 v -1.513655 h 0.4596 v 3.886547 h -0.4596 v -0.419627 q -0.14487,0.249778 -0.36717,0.372169 -0.2198,0.119894 -0.52953,0.119894 -0.50705,0 -0.82676,-0.404641 -0.31722,-0.40464 -0.31722,-1.064055 0,-0.659414 0.31722,-1.064054 0.31971,-0.404641 0.82676,-0.404641 0.30973,0 0.52953,0.122391 0.2223,0.119894 0.36717,0.369672 z m -1.5661,0.976632 q 0,0.50705 0.20731,0.796792 0.20982,0.287245 0.57449,0.287245 0.36468,0 0.57449,-0.287245 0.20981,-0.289742 0.20981,-0.796792 0,-0.507049 -0.20981,-0.794294 -0.20981,-0.289743 -0.57449,-0.289743 -0.36467,0 -0.57449,0.289743 -0.20731,0.287245 -0.20731,0.794294 z"
         style="stroke-width:0.12788638"
         id="path957" />
      <path
         d="m 111.24179,41.287771 v 0.2248 h -2.11312 q 0.03,0.474578 0.28474,0.724356 0.25728,0.247281 0.71437,0.247281 0.26476,0 0.51204,-0.06494 0.24978,-0.06494 0.49457,-0.194826 v 0.434613 q -0.24728,0.104907 -0.50705,0.159858 -0.25977,0.05495 -0.52704,0.05495 -0.6694,0 -1.06155,-0.389654 -0.38966,-0.389654 -0.38966,-1.054064 0,-0.68689 0.36968,-1.089032 0.37216,-0.404641 1.00161,-0.404641 0.56449,0 0.8917,0.364676 0.32971,0.362178 0.32971,0.986624 z M 110.7822,41.15289 q -0.005,-0.377165 -0.21231,-0.601965 -0.20482,-0.2248 -0.54452,-0.2248 -0.38466,0 -0.61695,0.217307 -0.2298,0.217307 -0.26477,0.611956 z"
         style="stroke-width:0.12788638"
         id="path959" />
    </g>
    <g
       aria-label="amplitude"
       style="font-style:normal;font-weight:normal;font-size:5.11545563px;line-height:1.25;font-family:sans-serif;letter-spacing:0px;word-spacing:0px;fill:#000000;fill-opacity:1;stroke:none;stroke-width:0.12788638"
       id="text898-3">
      <path
         d="m 27.960441,49.795547 q -0.557005,0 -0.771814,0.127387 -0.214809,0.127386 -0.214809,0.434613 0,0.244783 0.159858,0.389654 0.162355,0.142374 0.439609,0.142374 0.382161,0 0.611956,-0.269761 0.232294,-0.272258 0.232294,-0.721858 v -0.102409 z m 0.916686,-0.189832 v 1.596082 h -0.459592 v -0.424622 q -0.15736,0.254773 -0.392152,0.377165 -0.234791,0.119893 -0.574489,0.119893 -0.429619,0 -0.684392,-0.239787 -0.252276,-0.242285 -0.252276,-0.646925 0,-0.472081 0.31472,-0.711868 0.317219,-0.239787 0.944162,-0.239787 h 0.644427 v -0.04496 q 0,-0.317218 -0.209814,-0.489565 -0.207315,-0.174845 -0.58448,-0.174845 -0.239787,0 -0.467085,0.05745 -0.227298,0.05745 -0.437112,0.172347 V 48.53167 q 0.252276,-0.09741 0.489565,-0.144872 0.237289,-0.04995 0.46209,-0.04995 0.60696,0 0.906694,0.31472 0.299734,0.31472 0.299734,0.954152 z"
         style="stroke-width:0.12788638"
         id="path962" />
      <path
         d="m 32.004349,48.941306 q 0.172347,-0.309725 0.412134,-0.457094 0.239787,-0.147369 0.564498,-0.147369 0.437112,0 0.674401,0.307227 0.237289,0.304729 0.237289,0.869227 v 1.6885 h -0.462089 v -1.673513 q 0,-0.402143 -0.142374,-0.59697 -0.142373,-0.194826 -0.434614,-0.194826 -0.357182,0 -0.564498,0.237289 -0.207316,0.237289 -0.207316,0.646925 v 1.581095 h -0.46209 v -1.673513 q 0,-0.40464 -0.142373,-0.59697 -0.142374,-0.194826 -0.43961,-0.194826 -0.352187,0 -0.559503,0.239787 -0.207315,0.237289 -0.207315,0.644427 v 1.581095 h -0.46209 v -2.797514 h 0.46209 v 0.434614 q 0.15736,-0.257272 0.377165,-0.379663 0.219804,-0.122391 0.522036,-0.122391 0.304729,0 0.51704,0.154862 0.21481,0.154862 0.317219,0.449601 z"
         style="stroke-width:0.12788638"
         id="path964" />
      <path
         d="m 35.256459,50.78217 v 1.483682 H 34.79437 v -3.861569 h 0.462089 v 0.424622 q 0.144872,-0.249778 0.364676,-0.369671 0.222303,-0.122391 0.52953,-0.122391 0.509547,0 0.826765,0.40464 0.319716,0.404641 0.319716,1.064055 0,0.659414 -0.319716,1.064055 -0.317218,0.40464 -0.826765,0.40464 -0.307227,0 -0.52953,-0.119893 -0.219804,-0.122392 -0.364676,-0.37217 z m 1.563611,-0.976632 q 0,-0.50705 -0.209813,-0.794295 -0.207316,-0.289742 -0.571992,-0.289742 -0.364676,0 -0.57449,0.289742 -0.207316,0.287245 -0.207316,0.794295 0,0.507049 0.207316,0.796792 0.209814,0.287245 0.57449,0.287245 0.364676,0 0.571992,-0.287245 0.209813,-0.289743 0.209813,-0.796792 z"
         style="stroke-width:0.12788638"
         id="path966" />
      <path
         d="m 38.05897,47.31525 h 0.459592 v 3.886547 H 38.05897 Z"
         style="stroke-width:0.12788638"
         id="path968" />
      <path
         d="m 39.47771,48.404283 h 0.459591 v 2.797514 H 39.47771 Z m 0,-1.089033 h 0.459591 v 0.581983 H 39.47771 Z"
         style="stroke-width:0.12788638"
         id="path970" />
      <path
         d="m 41.351045,47.609988 v 0.794295 h 0.946659 v 0.357182 h -0.946659 v 1.518651 q 0,0.342196 0.09242,0.43961 0.09492,0.09741 0.382161,0.09741 h 0.47208 v 0.384658 h -0.47208 q -0.532028,0 -0.734348,-0.197324 -0.20232,-0.199823 -0.20232,-0.724357 v -1.518651 h -0.337201 v -0.357182 h 0.337201 v -0.794295 z"
         style="stroke-width:0.12788638"
         id="path972" />
      <path
         d="M 42.857208,50.097778 V 48.404283 H 43.3168 v 1.676011 q 0,0.397147 0.154862,0.596969 0.154863,0.197325 0.464587,0.197325 0.37217,0 0.586979,-0.237289 0.217307,-0.237289 0.217307,-0.646925 v -1.586091 h 0.459592 v 2.797514 h -0.459592 v -0.429618 q -0.167351,0.254774 -0.389654,0.379663 -0.219805,0.122391 -0.512045,0.122391 -0.482072,0 -0.73185,-0.299734 -0.249778,-0.299733 -0.249778,-0.876721 z m 1.156473,-1.760935 z"
         style="stroke-width:0.12788638"
         id="path974" />
      <path
         d="M 47.992645,48.828905 V 47.31525 h 0.459591 v 3.886547 H 47.992645 V 50.78217 q -0.144872,0.249778 -0.367174,0.37217 -0.219805,0.119893 -0.52953,0.119893 -0.507049,0 -0.826765,-0.40464 -0.317218,-0.404641 -0.317218,-1.064055 0,-0.659414 0.317218,-1.064055 0.319716,-0.40464 0.826765,-0.40464 0.309725,0 0.52953,0.122391 0.222302,0.119893 0.367174,0.369671 z m -1.566109,0.976633 q 0,0.507049 0.207316,0.796792 0.209813,0.287245 0.574489,0.287245 0.364676,0 0.57449,-0.287245 0.209814,-0.289743 0.209814,-0.796792 0,-0.50705 -0.209814,-0.794295 -0.209814,-0.289742 -0.57449,-0.289742 -0.364676,0 -0.574489,0.289742 -0.207316,0.287245 -0.207316,0.794295 z"
         style="stroke-width:0.12788638"
         id="path976" />
      <path
         d="m 51.79177,49.688142 v 0.2248 h -2.113122 q 0.02997,0.474579 0.284747,0.724357 0.257271,0.24728 0.714365,0.24728 0.264765,0 0.512045,-0.06494 0.249778,-0.06494 0.494561,-0.194827 v 0.434614 q -0.247281,0.104907 -0.50705,0.159858 -0.259769,0.05495 -0.527032,0.05495 -0.669405,0 -1.061557,-0.389654 -0.389653,-0.389654 -0.389653,-1.054063 0,-0.68689 0.369671,-1.089033 0.37217,-0.40464 1.00161,-0.40464 0.564499,0 0.891708,0.364676 0.329707,0.362178 0.329707,0.986623 z m -0.459591,-0.13488 q -0.005,-0.377165 -0.212312,-0.601965 -0.204818,-0.224801 -0.544516,-0.224801 -0.384658,0 -0.616952,0.217307 -0.229796,0.217307 -0.264765,0.611957 z"
         style="stroke-width:0.12788638"
         id="path978" />
    </g>
  </g>
</svg>
